{ "life":
	[
  {
    "MinSA": 0,
    "MaxSA": 5000000,
    "MinAge": 18,
    "MaxAge": 99,
    "Tests" : ["ME,BPB"]
  },{
    "MinSA": 0,
    "MaxSA": 5000000,
    "MinAge": 36,
    "MaxAge": 45,
    "Tests" : ["ME,BPB", "HbA1c", "ECG-R"]
  },{
    "MinSA": 0,
    "MaxSA": 5000000,
    "MinAge": 46,
    "MaxAge": 99,
    "Tests" : ["ME,BPB", "HbA1c", "ECG-exe", "CBC"]
  },
  {
    "MinSA": 5000001,
    "MaxSA": 20000000,
    "MinAge": 18,
    "MaxAge": 35,
    "Tests" : ["ME,BPB", "HbA1c", "ECG-R"]
  },{
    "MinSA": 5000001,
    "MaxSA": 20000000,
    "MinAge": 36,
    "MaxAge": 45,
    "Tests" : ["ME,BPB", "HbA1c", "ECG-exe", "CBC"]
  },{
    "MinSA": 5000001,
    "MaxSA": 20000000,
    "MinAge": 46,
    "MaxAge": 99,
    "Tests" : ["ME,BPB", "HbA1c", "ECG-exe", "CBC"]
  },
  {
    "MinSA": 20000001,
    "MaxSA": 99999999,
    "MinAge": 18,
    "MaxAge": 35,
    "Tests" : ["ME,BPB", "HbA1c", "ECG-R"]
  },{
    "MinSA": 20000001,
    "MaxSA": 99999999,
    "MinAge": 36,
    "MaxAge": 45,
    "Tests" : ["ME,BPB", "HbA1c", "ECG-exe", "CBC"]
  },{
    "MinSA": 20000001,
    "MaxSA": 99999999,
    "MinAge": 46,
    "MaxAge": 99,
    "Tests" : ["ME,BPB", "HbA1c", "ECG-exe", "CBC"]
  },
  {
    "MinSA": 100000000,
    "MaxSA": 999999999,
    "MinAge": 18,
    "MaxAge": 35,
    "Tests" : ["ME,BPB", "HbA1c", "ECG-R", "ECG-exe",
    "CBC", "2D Echo", "USG (KUB and Abdomen), Chest X Ray, Anti HCV, PFT, Urine Microalbumin"]
  },
  {
    "MinSA": 100000000,
    "MaxSA": 999999999,
    "MinAge": 36,
    "MaxAge": 45,
    "Tests" : ["ME,BPB", "HbA1c", "ECG-R", "ECG-exe",
    "CBC", "2D Echo", "USG (KUB and Abdomen), Chest X Ray, Anti HCV, PFT, Urine Microalbumin"]
  },
  {
    "MinSA": 100000000,
    "MaxSA": 999999999,
    "MinAge": 46,
    "MaxAge": 99,
    "Tests" : ["ME,BPB", "HbA1c", "ECG-R", "ECG-exe",
    "CBC", "2D Echo", "USG (KUB and Abdomen), Chest X Ray, Anti HCV, PFT, Urine Microalbumin"]
  }
  ]
}